

	var campo0=document.forms[0].elements[0].value;
	var campo1=document.forms[0].elements[1].value;
	var campo2=document.forms[0].elements[2].value;
	var campo3=document.forms[0].elements[3].value;
	var campo4=parseInt(document.forms[0].elements[8].value);
	var campo5=document.forms[0].elements[9].value;
	var campo6=document.forms[0].elements[10].value;
	var campo7=document.forms[0].elements[11].value;
	var campo17=document.forms[0].elements[12].value;

	switch(campo4){
		
		
		
		
		case 32:
		var campo9 =document.getElementById('notas6').value;
		var campo10="";
		var campo11 =document.getElementById('tNumero6').value;
		var campo12 ="";
		var campo13 =document.getElementById('tFolios6').value;
		var campo14=document.getElementById('lTipoCer').value;
		var campo15 =document.getElementById('lisBeneficiarios').value;
		var campo16="";
		var campo18=$('#sltTipoIdentificacion6').val();
		var campo19="";
		break;
		case 33:
		var campo9 =document.getElementById('notas7').value;
		var campo10="";
		var campo11 =document.getElementById('tNumero7').value;
		var campo12 ="";
		var campo13 ="";
		var campo14="";
		var campo15 ="";
		var campo16=$("#notasTarjeta").html();
		var campo18=0;
		var campo19="";
		break;
		case 69:
		var campo9 =document.getElementById('notas8').value;
		var campo10="";
		//id postulante
		var campo11 =document.getElementById('txtIdentificacion').value;
		var campo12 ="";
		var campo13 =document.getElementById('tFolios8').value;
		var campo14="";
		var campo15 ="";
		var campo16="";
		var campo18=$('#sltTipoIdentificacion8').val();
		var campo19="";
		break;
		case 70:
		var campo9 =document.getElementById('notas9').value;
		var campo10="";
		var campo11 =document.getElementById('tNumero9').value;
		var campo12 ="";
		var campo13 ="";
		var campo14="";
		var campo15 ="";
		var campo16="";
		var campo18=0;
		var campo19="";
		break;
		case 105:
		var campo9 =document.getElementById('notas10').value;
		var campo10="";
		var campo11 ="";
		var campo12 =document.getElementById('tNit10').value;
		var campo13 =document.getElementById('tFolios10').value;
		var campo14="";
		var campo15 ="";
		var campo16="";
		var campo18=0;
		var campo19="";
		break;

		case 169 :
			var campo9 =document.getElementById('notas11').value;
			var campo10="";
			var campo11 ="";
			var campo12 =document.getElementById('tNit11').value;
			var campo13 ="";
			var campo14="";
			var campo15 ="";
			var campo16="";
			var campo18=0;
			var campo19="";
		break;
		case 170 :
			var campo9 =document.getElementById('notas12').value;
			var campo10="";
			var campo11 ="";
			var campo12 =document.getElementById('tNit12').value;
			var campo13 ="";
			var campo14="";
			var campo15 ="";
			var campo16="";
			var campo18=0;
			var campo19="";
		break;
		case 183 :
			var campo9 =document.getElementById('notas13').value;
			var campo10="";
			var campo11 =document.getElementById('tNumero13').value;
			var campo12 ="";
			var campo13 ="";
			var campo14= $('#comboQuien').val();
			var campo15 =$('#comboFallecido').val();
			var campo16="";
			var campo18=$('#sltTipoIdentificacion13').val();
			var campo19="";
		break;
		case 191 :
			if(confirm("Esta seguro de disolver la relaci\u00F3n de convivencia?")==true){
				var campo9 =document.getElementById('notas14').value;
				var campo10="";
				var campo11 =document.getElementById('tNumero14').value;
				var campo12 ="";
				var campo13 ="";
				var campo14= "";
				var campo15 ="";
				var campo16="";
				var campo18=$('#sltTipoIdentificacion14').val();
				var campo19="";
				}
			else
			{
				limpiarCampos();
				ocultarDiv();
				return false;
				}
        break;
		case 192 : 	// afiliaciones multiples
			var campo9 =document.getElementById('notas15').value;
			var campo10="";
			var campo11 =document.getElementById('tNumero15').value;
			var campo12 =document.getElementById('tNit15').value;
			var campo13 =document.getElementById('tFolios15').value;
			var campo14="";
			var campo15 ="";
			var campo16="";
			var campo18=0;
			var campo19="";
		break;
            
    }
	$.ajax({
		url: 'radicacionG.php',
		type: "POST",
		data: "submit=&v0="+campo0+"&v1="+campo1+"&v2="+campo2+"&v3="+campo3+"&v4="+campo4+"&v5="+campo5+"&v6="+campo6+"&v7="+campo7+"&v9="+campo9+"&v10="+campo10+"&v11="+campo11+"&v12="+campo12+"&v13="+campo13+"&v14="+campo14+"&v15="+campo15+"&v16="+campo16+"&v17="+campo17+"&v18="+campo18+"&v19="+campo19,
		success: function(datos){
			if(datos==0){
				alert("La radicaci\u00F3n no se realiz\u00F3, intente de nuevo");
				}
			else{
				$('#txtId').val(datos);

				alert("La radicaci\u00F3n se guard\u00F3 con \u00C9xito! Radicaci\u00F3n N\u00FAmero: " + datos);
				nuevo=0;
				if($('#select2').val()==70){
					guardarBeneficiario();
				}
                if($('#select2').val()==211){
					guardarConvivencia();
				}
				if($('#select2').val()==195){
					guardarReposicion();
				}
				if($('#select2').val()==169){
					var campo0=$('#idPersona').val();
					var campo1=$('#periodoI1').val();
					var campo2=$('#periodoF1').val();
					var campo3=$('#causal1').val();
					var campo4=$('#notas11').val();
					$.post('reclamoT.php',{v0:campo0,v1:campo1,v2:campo2,v3:campo3,v4:campo4},function(data){
						alert(data);
						});
					}
				if($('#select2').val()==170){
					var campo0=$('#idEmpresa').val();
					var campo1=$('#periodoI2').val();
					var campo2=$('#periodoF2').val();
					var campo3=$('#causal2').val();
					var campo4=$('#notas12').val();
					$.post('reclamoE.php',{v0:campo0,v1:campo1,v2:campo2,v3:campo3,v4:campo4},function(data){
						alert(data);
						});
					}
				if($('#select2').val()==191){
					var campo0=$('#idPersona').val();
					var campo1=$('#idConyuge').val();
					$.post('disolver.php',{v0:campo0,v1:campo1},function(data){
						alert(data);
						});
					campo0=$('#txtId').val();
					$.post('cerrarRadicacion.php',{v0:campo0},function(datos){
						});
					}
				if($('#select2').val()==32){
					var campo0=$('#idPersona').val();
					var campo1=$('#lisBeneficiarios').val();
					var campo2=$('#lTipoCer').val();
					$.post(URL+'aportes/radicacion/buscarTipoParentesco.php',{v0:campo0,v1:campo1},function(datos){
						var idtp=datos;
						if(idtp==36){
							if(campo2==55 || campo2==56){
								alert("Un padre no requiere Certificado de estudio!, intente de nuevo");
								//cerrar radicacion con error de usuario
								return false;
								}
								}
						$.post('grabarCertificado.php',{v0:campo1,v1:idtp,v2:campo2,v3:'P'},function(datos){
							alert (datos);
									});
						});
				}
			}
			if(campo4==33 && ide==63){
				var r = confirm("Confirme si la Tarjeta se va a entregar!");
				if(r){
					entregarTarjeta();
				}
				else
				{
					alert("No se entreg\u00F3 NINGUNA tarjeta!, s\u00F3lo se guard\u00F3 la atenci\u00F3n al usuario");
				}
			}
		}
	});
	return false;
